{
  "sections": {
    "collection-header": {
      "type": "collection-header",
      "disabled": true,
      "settings": {
        "enable": true,
        "collection_image_enable": false,
        "parallax": false
      }
    },
    "main-collection": {
      "type": "main-collection",
      "blocks": {
        "collection_description": {
          "type": "collection_description",
          "settings": {}
        },
        "subcollections": {
          "type": "subcollections",
          "settings": {
            "subcollections_per_row": 5
          }
        },
        "product_grid": {
          "type": "product_grid",
          "settings": {
            "enable_collection_count": true,
            "per_row": 4,
            "rows_per_page": 7,
            "mobile_flush_grid": false
          }
        }
      },
      "block_order": [
        "collection_description",
        "subcollections",
        "product_grid"
      ],
      "settings": {
        "ptop": 0,
        "pbottom": 45,
        "ptop_mob": 0,
        "pbottom_mob": 45,
        "enable_sidebar": true,
        "collapsed": true,
        "filter_style": "drawer",
        "enable_color_swatches": false,
        "enable_sort": true
      }
    }
  },
  "order": [
    "collection-header",
    "main-collection"
  ]
}